Uncentered:

num_bits 16 num_tables 370 query_time 0.00278196 hash_time 0.000451877 table_time 0.000342636 distance_time 0.00189176 num_candidates 35683.2 accuracy 0.8534

Centered:

num_bits 16 num_tables 494 query_time 0.00258645 hash_time 0.000871448 table_time 0.000298894 distance_time 0.00134827 num_candidates 16753.1 accuracy 0.8531
