num_bits 16 num_tables 1 query_time 7.27993e-06 hash_time 1.82221e-06 table_time 6.54812e-07 distance_time 3.28567e-06 num_candidates 268.373 accuracy 0.0121 hash_memory 4770056 tables_memory 3774153 
num_bits 16 num_tables 2 query_time 1.30152e-05 hash_time 3.48693e-06 table_time 1.29224e-06 distance_time 6.44651e-06 num_candidates 299.526 accuracy 0.0235 hash_memory 9540112 tables_memory 7548306 
num_bits 16 num_tables 3 query_time 1.85901e-05 hash_time 5.07879e-06 table_time 1.98193e-06 distance_time 9.55155e-06 num_candidates 333.937 accuracy 0.0332 hash_memory 14310168 tables_memory 11322459 
num_bits 16 num_tables 4 query_time 2.43528e-05 hash_time 6.93783e-06 table_time 2.70707e-06 distance_time 1.25458e-05 num_candidates 389.369 accuracy 0.0441 hash_memory 19080224 tables_memory 15096612 
num_bits 16 num_tables 5 query_time 2.96595e-05 hash_time 8.25137e-06 table_time 3.42859e-06 distance_time 1.5597e-05 num_candidates 478.944 accuracy 0.0551 hash_memory 23850280 tables_memory 18870765 
num_bits 16 num_tables 6 query_time 3.51992e-05 hash_time 1.00067e-05 table_time 4.23567e-06 distance_time 1.84202e-05 num_candidates 520.621 accuracy 0.0658 hash_memory 28620336 tables_memory 22644918 
num_bits 16 num_tables 7 query_time 4.11805e-05 hash_time 1.1537e-05 table_time 4.9475e-06 distance_time 2.19941e-05 num_candidates 569.876 accuracy 0.075 hash_memory 33390392 tables_memory 26419071 
num_bits 16 num_tables 8 query_time 4.55313e-05 hash_time 1.29977e-05 table_time 5.20032e-06 distance_time 2.44735e-05 num_candidates 608.593 accuracy 0.0839 hash_memory 38160448 tables_memory 30193224 
num_bits 16 num_tables 9 query_time 5.16663e-05 hash_time 1.49819e-05 table_time 5.91389e-06 distance_time 2.77112e-05 num_candidates 684.245 accuracy 0.0916 hash_memory 42930504 tables_memory 33967377 
num_bits 16 num_tables 10 query_time 5.64783e-05 hash_time 1.60634e-05 table_time 6.5522e-06 distance_time 3.06843e-05 num_candidates 714.569 accuracy 0.1003 hash_memory 47700560 tables_memory 37741530 
num_bits 16 num_tables 11 query_time 6.21709e-05 hash_time 1.77409e-05 table_time 7.36169e-06 distance_time 3.36831e-05 num_candidates 872.895 accuracy 0.1089 hash_memory 52470616 tables_memory 41515683 
num_bits 16 num_tables 13 query_time 7.24991e-05 hash_time 2.08679e-05 table_time 8.53637e-06 distance_time 3.93855e-05 num_candidates 932.382 accuracy 0.1238 hash_memory 62010728 tables_memory 49063989 
num_bits 16 num_tables 15 query_time 8.44219e-05 hash_time 2.43454e-05 table_time 1.00303e-05 distance_time 4.60112e-05 num_candidates 1074.04 accuracy 0.1394 hash_memory 71550840 tables_memory 56612295 
num_bits 16 num_tables 17 query_time 9.67348e-05 hash_time 2.83596e-05 table_time 1.14697e-05 distance_time 5.25661e-05 num_candidates 1297.51 accuracy 0.1543 hash_memory 81090952 tables_memory 64160601 
num_bits 16 num_tables 19 query_time 0.000106863 hash_time 3.09538e-05 table_time 1.27048e-05 distance_time 5.85462e-05 num_candidates 1373.44 accuracy 0.1682 hash_memory 90631064 tables_memory 71708907 
num_bits 16 num_tables 21 query_time 0.000117599 hash_time 3.44594e-05 table_time 1.41002e-05 distance_time 6.40212e-05 num_candidates 1586.43 accuracy 0.1812 hash_memory 100171176 tables_memory 79257213 
num_bits 16 num_tables 24 query_time 0.000131219 hash_time 3.74058e-05 table_time 1.59992e-05 distance_time 7.2403e-05 num_candidates 1776.21 accuracy 0.1988 hash_memory 114481344 tables_memory 90579672 
num_bits 16 num_tables 27 query_time 0.000150057 hash_time 4.39957e-05 table_time 1.82583e-05 distance_time 8.17942e-05 num_candidates 1938.91 accuracy 0.2156 hash_memory 128791512 tables_memory 101902131 
num_bits 16 num_tables 30 query_time 0.000163175 hash_time 4.7177e-05 table_time 2.02451e-05 distance_time 8.92984e-05 num_candidates 2059.1 accuracy 0.2338 hash_memory 143101680 tables_memory 113224590 
num_bits 16 num_tables 33 query_time 0.00017854 hash_time 5.1981e-05 table_time 2.19954e-05 distance_time 9.76509e-05 num_candidates 2256.35 accuracy 0.2502 hash_memory 157411848 tables_memory 124547049 
num_bits 16 num_tables 37 query_time 0.000200323 hash_time 5.79948e-05 table_time 2.49471e-05 distance_time 0.000109806 num_candidates 2424.47 accuracy 0.2691 hash_memory 176492072 tables_memory 139643661 
num_bits 16 num_tables 41 query_time 0.000219587 hash_time 6.40216e-05 table_time 2.77006e-05 distance_time 0.000119731 num_candidates 2897.51 accuracy 0.2878 hash_memory 195572296 tables_memory 154740273 
num_bits 16 num_tables 46 query_time 0.000245656 hash_time 7.20732e-05 table_time 3.08183e-05 distance_time 0.000133793 num_candidates 3164.35 accuracy 0.3119 hash_memory 219422576 tables_memory 173611038 
num_bits 16 num_tables 51 query_time 0.000271631 hash_time 7.92362e-05 table_time 3.42514e-05 distance_time 0.000148439 num_candidates 3422.02 accuracy 0.3316 hash_memory 243272856 tables_memory 192481803 
num_bits 16 num_tables 57 query_time 0.000316364 hash_time 9.9475e-05 table_time 3.88153e-05 distance_time 0.000167636 num_candidates 3977.07 accuracy 0.3565 hash_memory 271893192 tables_memory 215126721 
num_bits 16 num_tables 63 query_time 0.000333495 hash_time 9.85554e-05 table_time 4.22215e-05 distance_time 0.000181378 num_candidates 4387.44 accuracy 0.3773 hash_memory 300513528 tables_memory 237771639 
num_bits 16 num_tables 70 query_time 0.000368274 hash_time 0.000108231 table_time 4.66738e-05 distance_time 0.000200996 num_candidates 4550.8 accuracy 0.4027 hash_memory 333903920 tables_memory 264190710 
num_bits 16 num_tables 77 query_time 0.000404313 hash_time 0.000118971 table_time 5.16279e-05 distance_time 0.000220262 num_candidates 4809.54 accuracy 0.4237 hash_memory 367294312 tables_memory 290609781 
num_bits 16 num_tables 85 query_time 0.000447764 hash_time 0.000132846 table_time 5.70629e-05 distance_time 0.000243274 num_candidates 5041.59 accuracy 0.4469 hash_memory 405454760 tables_memory 320803005 
num_bits 16 num_tables 94 query_time 0.000489867 hash_time 0.000145547 table_time 5.9631e-05 distance_time 0.000268879 num_candidates 5333.98 accuracy 0.4668 hash_memory 448385264 tables_memory 354770382 
num_bits 16 num_tables 104 query_time 0.000538956 hash_time 0.00016096 table_time 6.38354e-05 distance_time 0.000296726 num_candidates 5593.68 accuracy 0.4925 hash_memory 496085824 tables_memory 392511912 
num_bits 16 num_tables 115 query_time 0.000597652 hash_time 0.000179753 table_time 7.2284e-05 distance_time 0.000326886 num_candidates 6075.34 accuracy 0.5178 hash_memory 548556440 tables_memory 434027595 
num_bits 16 num_tables 127 query_time 0.000659639 hash_time 0.000199272 table_time 7.94459e-05 distance_time 0.000360635 num_candidates 6426.44 accuracy 0.5412 hash_memory 605797112 tables_memory 479317431 
num_bits 16 num_tables 140 query_time 0.000724285 hash_time 0.000219856 table_time 8.71915e-05 distance_time 0.00039505 num_candidates 6929.51 accuracy 0.5653 hash_memory 667807840 tables_memory 528381420 
num_bits 16 num_tables 154 query_time 0.00079196 hash_time 0.000240778 table_time 9.2658e-05 distance_time 0.000434634 num_candidates 7535.61 accuracy 0.5897 hash_memory 734588624 tables_memory 581219562 
num_bits 16 num_tables 170 query_time 0.000877835 hash_time 0.000267397 table_time 0.000108143 distance_time 0.000475856 num_candidates 7998.67 accuracy 0.613 hash_memory 810909520 tables_memory 641606010 
num_bits 16 num_tables 188 query_time 0.000975836 hash_time 0.000298214 table_time 0.000122119 distance_time 0.000526187 num_candidates 8604.31 accuracy 0.6387 hash_memory 896770528 tables_memory 709540764 
num_bits 16 num_tables 207 query_time 0.00106706 hash_time 0.000331467 table_time 0.000128028 distance_time 0.000576192 num_candidates 9310.06 accuracy 0.6609 hash_memory 987401592 tables_memory 781249671 
num_bits 16 num_tables 228 query_time 0.00116879 hash_time 0.000366693 table_time 0.000138202 distance_time 0.000629673 num_candidates 10020.7 accuracy 0.6819 hash_memory 1087572768 tables_memory 860506884 
num_bits 16 num_tables 251 query_time 0.00128215 hash_time 0.000407188 table_time 0.000152481 distance_time 0.000684787 num_candidates 10860.3 accuracy 0.7032 hash_memory 1197284056 tables_memory 947312403 
num_bits 16 num_tables 277 query_time 0.00141931 hash_time 0.000454796 table_time 0.000167988 distance_time 0.00075526 num_candidates 11765.5 accuracy 0.7288 hash_memory 1321305512 tables_memory 1045440381 
num_bits 16 num_tables 305 query_time 0.00157836 hash_time 0.000515283 table_time 0.000185224 distance_time 0.000832844 num_candidates 12417.6 accuracy 0.7525 hash_memory 1454867080 tables_memory 1151116665 
num_bits 16 num_tables 336 query_time 0.00173191 hash_time 0.000566257 table_time 0.000204766 distance_time 0.000911799 num_candidates 13101.7 accuracy 0.776 hash_memory 1602738816 tables_memory 1268115408 
num_bits 16 num_tables 370 query_time 0.00190846 hash_time 0.00064078 table_time 0.000220821 distance_time 0.000993604 num_candidates 13915.3 accuracy 0.7975 hash_memory 1764920720 tables_memory 1396436610 
num_bits 16 num_tables 408 query_time 0.00209956 hash_time 0.00070324 table_time 0.000243279 distance_time 0.00109434 num_candidates 14868.8 accuracy 0.8187 hash_memory 1946182848 tables_memory 1539854424 
num_bits 16 num_tables 449 query_time 0.00230663 hash_time 0.000776045 table_time 0.000266836 distance_time 0.0012004 num_candidates 15782.6 accuracy 0.8356 hash_memory 2141755144 tables_memory 1694594697 
num_bits 16 num_tables 494 query_time 0.00257884 hash_time 0.000867641 table_time 0.00030471 distance_time 0.00133884 num_candidates 16753.1 accuracy 0.8531 hash_memory 2356407664 tables_memory 1864431582 
num_bits 16 num_tables 544 query_time 0.00284679 hash_time 0.000957578 table_time 0.000331531 distance_time 0.00148236 num_candidates 17729.4 accuracy 0.8702 hash_memory 2594910464 tables_memory 2053139232 
num_bits 16 num_tables 599 query_time 0.00316959 hash_time 0.00105858 table_time 0.000365947 distance_time 0.0016626 num_candidates 18948.2 accuracy 0.8861 hash_memory 2857263544 tables_memory 2260717647 
num_bits 16 num_tables 659 query_time 0.00341667 hash_time 0.00116023 table_time 0.000398549 distance_time 0.00176828 num_candidates 20144.1 accuracy 0.9007 hash_memory 3143466904 tables_memory 2487166827 
num_bits 16 num_tables 725 query_time 0.00375308 hash_time 0.00126879 table_time 0.000433819 distance_time 0.00195378 num_candidates 21329.4 accuracy 0.9147 hash_memory 3458290600 tables_memory 2736260925 
num_bits 16 num_tables 798 query_time 0.0041237 hash_time 0.00141566 table_time 0.000478638 distance_time 0.00212535 num_candidates 22741.5 accuracy 0.9275 hash_memory 3806504688 tables_memory 3011774094 
num_bits 16 num_tables 878 query_time 0.00453812 hash_time 0.00155859 table_time 0.000534499 distance_time 0.0023306 num_candidates 24073.5 accuracy 0.94 hash_memory 4188109168 tables_memory 3313706334 
num_bits 16 num_tables 966 query_time 0.00492913 hash_time 0.00172962 table_time 0.000575598 distance_time 0.00249792 num_candidates 25632.2 accuracy 0.9498 hash_memory 4607874096 tables_memory 3645831798 
num_bits 16 num_tables 1063 query_time 0.00534244 hash_time 0.00186265 table_time 0.00063188 distance_time 0.00271484 num_candidates 27294 accuracy 0.9584 hash_memory 5070569528 tables_memory 4011924639 
num_bits 16 num_tables 1170 query_time 0.00496218 hash_time 0.00203259 table_time 0.000689071 distance_time 0.00209547 num_candidates 29127.4 accuracy 0.9655 hash_memory 5580965520 tables_memory 4415759010 
num_bits 16 num_tables 1287 query_time 0.00600398 hash_time 0.00222886 table_time 0.000750566 distance_time 0.00286494 num_candidates 31182.5 accuracy 0.9717 hash_memory 6139062072 tables_memory 4857334911 
