num_bits 16 num_tables 1 query_time 1.06235e-05 hash_time 1.4821e-06 table_time 1.02978e-06 distance_time 6.36405e-06 num_candidates 692.58 accuracy 0.016 hash_memory 4770056 tables_memory 3774153 
num_bits 16 num_tables 2 query_time 1.84217e-05 hash_time 2.68815e-06 table_time 1.93722e-06 distance_time 1.16765e-05 num_candidates 783.756 accuracy 0.031 hash_memory 9540112 tables_memory 7548306 
num_bits 16 num_tables 3 query_time 2.63184e-05 hash_time 4.008e-06 table_time 2.87793e-06 distance_time 1.70141e-05 num_candidates 807.782 accuracy 0.0437 hash_memory 14310168 tables_memory 11322459 
num_bits 16 num_tables 4 query_time 3.46118e-05 hash_time 5.22197e-06 table_time 3.84864e-06 distance_time 2.28327e-05 num_candidates 875.74 accuracy 0.0557 hash_memory 19080224 tables_memory 15096612 
num_bits 16 num_tables 5 query_time 4.25812e-05 hash_time 6.50126e-06 table_time 4.80863e-06 distance_time 2.82336e-05 num_candidates 1131.72 accuracy 0.0691 hash_memory 23850280 tables_memory 18870765 
num_bits 16 num_tables 6 query_time 5.2577e-05 hash_time 7.76505e-06 table_time 6.09059e-06 distance_time 3.52962e-05 num_candidates 2036.33 accuracy 0.0814 hash_memory 28620336 tables_memory 22644918 
num_bits 16 num_tables 7 query_time 6.03312e-05 hash_time 8.89808e-06 table_time 7.01764e-06 distance_time 4.07143e-05 num_candidates 2120.37 accuracy 0.0938 hash_memory 33390392 tables_memory 26419071 
num_bits 16 num_tables 8 query_time 6.90574e-05 hash_time 9.8003e-06 table_time 8.08287e-06 distance_time 4.7144e-05 num_candidates 2179.02 accuracy 0.1036 hash_memory 38160448 tables_memory 30193224 
num_bits 16 num_tables 9 query_time 7.78335e-05 hash_time 1.14964e-05 table_time 9.01344e-06 distance_time 5.30115e-05 num_candidates 2340.84 accuracy 0.1119 hash_memory 42930504 tables_memory 33967377 
num_bits 16 num_tables 10 query_time 8.59073e-05 hash_time 1.28048e-05 table_time 1.0023e-05 distance_time 5.84272e-05 num_candidates 2451.97 accuracy 0.1216 hash_memory 47700560 tables_memory 37741530 
num_bits 16 num_tables 11 query_time 9.39823e-05 hash_time 1.40106e-05 table_time 1.1055e-05 distance_time 6.40521e-05 num_candidates 2502.8 accuracy 0.1302 hash_memory 52470616 tables_memory 41515683 
num_bits 16 num_tables 13 query_time 0.000110178 hash_time 1.55639e-05 table_time 1.29834e-05 distance_time 7.59944e-05 num_candidates 2775.12 accuracy 0.1498 hash_memory 62010728 tables_memory 49063989 
num_bits 16 num_tables 15 query_time 0.000125299 hash_time 1.77866e-05 table_time 1.49315e-05 distance_time 8.64471e-05 num_candidates 3032.91 accuracy 0.167 hash_memory 71550840 tables_memory 56612295 
num_bits 16 num_tables 17 query_time 0.000142251 hash_time 2.03087e-05 table_time 1.70544e-05 distance_time 9.80403e-05 num_candidates 3610.86 accuracy 0.1828 hash_memory 81090952 tables_memory 64160601 
num_bits 16 num_tables 19 query_time 0.000157934 hash_time 2.23846e-05 table_time 1.88955e-05 distance_time 0.000109275 num_candidates 3830.23 accuracy 0.1983 hash_memory 90631064 tables_memory 71708907 
num_bits 16 num_tables 21 query_time 0.000176394 hash_time 2.62727e-05 table_time 2.10019e-05 distance_time 0.00012118 num_candidates 4246.5 accuracy 0.2118 hash_memory 100171176 tables_memory 79257213 
num_bits 16 num_tables 24 query_time 0.000200496 hash_time 2.9955e-05 table_time 2.37877e-05 distance_time 0.000138021 num_candidates 4933.24 accuracy 0.2323 hash_memory 114481344 tables_memory 90579672 
num_bits 16 num_tables 27 query_time 0.000225705 hash_time 3.3693e-05 table_time 2.7004e-05 distance_time 0.000155516 num_candidates 5314.55 accuracy 0.2483 hash_memory 128791512 tables_memory 101902131 
num_bits 16 num_tables 30 query_time 0.000248229 hash_time 3.75032e-05 table_time 2.98688e-05 distance_time 0.000170423 num_candidates 5581.97 accuracy 0.2652 hash_memory 143101680 tables_memory 113224590 
num_bits 16 num_tables 33 query_time 0.000268761 hash_time 3.8068e-05 table_time 3.24906e-05 distance_time 0.000186972 num_candidates 5846.35 accuracy 0.2826 hash_memory 157411848 tables_memory 124547049 
num_bits 16 num_tables 37 query_time 0.000299413 hash_time 4.26432e-05 table_time 3.69461e-05 distance_time 0.000207337 num_candidates 7690.41 accuracy 0.3047 hash_memory 176492072 tables_memory 139643661 
num_bits 16 num_tables 41 query_time 0.000333306 hash_time 4.72042e-05 table_time 4.11417e-05 distance_time 0.000231327 num_candidates 8062.66 accuracy 0.3297 hash_memory 195572296 tables_memory 154740273 
num_bits 16 num_tables 46 query_time 0.000372338 hash_time 5.30293e-05 table_time 4.63098e-05 distance_time 0.000258066 num_candidates 8741.98 accuracy 0.3536 hash_memory 219422576 tables_memory 173611038 
num_bits 16 num_tables 51 query_time 0.000411842 hash_time 5.89354e-05 table_time 5.14916e-05 distance_time 0.00028527 num_candidates 9018.26 accuracy 0.3762 hash_memory 243272856 tables_memory 192481803 
num_bits 16 num_tables 57 query_time 0.000455181 hash_time 6.56786e-05 table_time 5.70959e-05 distance_time 0.000314338 num_candidates 9742.98 accuracy 0.4027 hash_memory 271893192 tables_memory 215126721 
num_bits 16 num_tables 63 query_time 0.000506229 hash_time 7.24918e-05 table_time 6.32274e-05 distance_time 0.000350872 num_candidates 10306.9 accuracy 0.4272 hash_memory 300513528 tables_memory 237771639 
num_bits 16 num_tables 70 query_time 0.000556313 hash_time 8.08431e-05 table_time 7.04422e-05 distance_time 0.00038343 num_candidates 10886.7 accuracy 0.4527 hash_memory 333903920 tables_memory 264190710 
num_bits 16 num_tables 77 query_time 0.000609144 hash_time 8.93015e-05 table_time 7.69743e-05 distance_time 0.000419685 num_candidates 11897.3 accuracy 0.4766 hash_memory 367294312 tables_memory 290609781 
num_bits 16 num_tables 85 query_time 0.0006754 hash_time 9.7981e-05 table_time 8.51861e-05 distance_time 0.000467166 num_candidates 12839 accuracy 0.5026 hash_memory 405454760 tables_memory 320803005 
num_bits 16 num_tables 94 query_time 0.000739968 hash_time 0.000108647 table_time 9.41643e-05 distance_time 0.000508767 num_candidates 14318 accuracy 0.5285 hash_memory 448385264 tables_memory 354770382 
num_bits 16 num_tables 104 query_time 0.000816699 hash_time 0.000120144 table_time 0.000104607 distance_time 0.000561521 num_candidates 15018.3 accuracy 0.5527 hash_memory 496085824 tables_memory 392511912 
num_bits 16 num_tables 115 query_time 0.000901607 hash_time 0.000134153 table_time 0.000114373 distance_time 0.000618938 num_candidates 15968.7 accuracy 0.5788 hash_memory 548556440 tables_memory 434027595 
num_bits 16 num_tables 127 query_time 0.000994956 hash_time 0.000149271 table_time 0.000127385 distance_time 0.000681839 num_candidates 16840.7 accuracy 0.6049 hash_memory 605797112 tables_memory 479317431 
num_bits 16 num_tables 140 query_time 0.00109353 hash_time 0.000164055 table_time 0.000139507 distance_time 0.000749959 num_candidates 18236.9 accuracy 0.633 hash_memory 667807840 tables_memory 528381420 
num_bits 16 num_tables 154 query_time 0.00120234 hash_time 0.000181599 table_time 0.000153126 distance_time 0.000823757 num_candidates 19409.6 accuracy 0.6594 hash_memory 734588624 tables_memory 581219562 
num_bits 16 num_tables 170 query_time 0.00132446 hash_time 0.000201127 table_time 0.000169003 distance_time 0.00090653 num_candidates 20116.1 accuracy 0.6862 hash_memory 810909520 tables_memory 641606010 
num_bits 16 num_tables 188 query_time 0.00146312 hash_time 0.0002261 table_time 0.00018623 distance_time 0.000998286 num_candidates 21729.9 accuracy 0.7106 hash_memory 896770528 tables_memory 709540764 
num_bits 16 num_tables 207 query_time 0.00159909 hash_time 0.00024989 table_time 0.000197126 distance_time 0.00109436 num_candidates 25051.3 accuracy 0.7345 hash_memory 987401592 tables_memory 781249671 
num_bits 16 num_tables 228 query_time 0.00176141 hash_time 0.000280583 table_time 0.000215401 distance_time 0.0012031 num_candidates 26286.4 accuracy 0.7578 hash_memory 1087572768 tables_memory 860506884 
num_bits 16 num_tables 251 query_time 0.00194279 hash_time 0.000312984 table_time 0.000238044 distance_time 0.00132336 num_candidates 27524.3 accuracy 0.7779 hash_memory 1197284056 tables_memory 947312403 
num_bits 16 num_tables 277 query_time 0.00212079 hash_time 0.000341108 table_time 0.000259155 distance_time 0.0014454 num_candidates 29717.5 accuracy 0.7975 hash_memory 1321305512 tables_memory 1045440381 
num_bits 16 num_tables 305 query_time 0.00231806 hash_time 0.000365535 table_time 0.000283533 distance_time 0.00158753 num_candidates 31518 accuracy 0.8165 hash_memory 1454867080 tables_memory 1151116665 
num_bits 16 num_tables 336 query_time 0.00254864 hash_time 0.000410449 table_time 0.000310387 distance_time 0.00173871 num_candidates 33903.8 accuracy 0.8366 hash_memory 1602738816 tables_memory 1268115408 
num_bits 16 num_tables 370 query_time 0.00276875 hash_time 0.000451685 table_time 0.000340122 distance_time 0.00188134 num_candidates 35683.2 accuracy 0.8534 hash_memory 1764920720 tables_memory 1396436610 
num_bits 16 num_tables 408 query_time 0.00305156 hash_time 0.000509604 table_time 0.000373547 distance_time 0.00206367 num_candidates 37894.8 accuracy 0.8727 hash_memory 1946182848 tables_memory 1539854424 
num_bits 16 num_tables 449 query_time 0.00332012 hash_time 0.000553021 table_time 0.000396202 distance_time 0.00225672 num_candidates 40093 accuracy 0.8877 hash_memory 2141755144 tables_memory 1694594697 
num_bits 16 num_tables 494 query_time 0.00363695 hash_time 0.000599605 table_time 0.000449262 distance_time 0.00246474 num_candidates 41754.2 accuracy 0.9025 hash_memory 2356407664 tables_memory 1864431582 
num_bits 16 num_tables 544 query_time 0.00397965 hash_time 0.000667905 table_time 0.00049095 distance_time 0.00268564 num_candidates 44348.4 accuracy 0.917 hash_memory 2594910464 tables_memory 2053139232 
num_bits 16 num_tables 599 query_time 0.00437416 hash_time 0.000728033 table_time 0.000542458 distance_time 0.00295382 num_candidates 46529.1 accuracy 0.9322 hash_memory 2857263544 tables_memory 2260717647 
num_bits 16 num_tables 659 query_time 0.00473985 hash_time 0.000797624 table_time 0.000568493 distance_time 0.00321552 num_candidates 48829.3 accuracy 0.9435 hash_memory 3143466904 tables_memory 2487166827 
num_bits 16 num_tables 725 query_time 0.00510633 hash_time 0.000877815 table_time 0.000642563 distance_time 0.00341062 num_candidates 51827.3 accuracy 0.9524 hash_memory 3458290600 tables_memory 2736260925 
num_bits 16 num_tables 798 query_time 0.00544479 hash_time 0.000982975 table_time 0.000686624 distance_time 0.00358452 num_candidates 54776.4 accuracy 0.9611 hash_memory 3806504688 tables_memory 3011774094 
num_bits 16 num_tables 878 query_time 0.00575346 hash_time 0.00108322 table_time 0.000749771 distance_time 0.00371466 num_candidates 57866.5 accuracy 0.9679 hash_memory 4188109168 tables_memory 3313706334 
num_bits 16 num_tables 966 query_time 0.00609375 hash_time 0.00119477 table_time 0.00084945 distance_time 0.00382419 num_candidates 61207.7 accuracy 0.9739 hash_memory 4607874096 tables_memory 3645831798 
num_bits 16 num_tables 1063 query_time 0.00632096 hash_time 0.00130628 table_time 0.000931125 distance_time 0.0038436 num_candidates 65213 accuracy 0.9792 hash_memory 5070569528 tables_memory 4011924639 
num_bits 16 num_tables 1170 query_time 0.00660386 hash_time 0.00142833 table_time 0.00103067 distance_time 0.00388264 num_candidates 68657.7 accuracy 0.9839 hash_memory 5580965520 tables_memory 4415759010 
num_bits 16 num_tables 1287 query_time 0.00840322 hash_time 0.00156994 table_time 0.00112442 distance_time 0.00542074 num_candidates 72991.5 accuracy 0.9874 hash_memory 6139062072 tables_memory 4857334911 
num_bits 16 num_tables 1416 query_time 0.00986048 hash_time 0.00176039 table_time 0.00124694 distance_time 0.0065423 num_candidates 77437.6 accuracy 0.99 hash_memory 6754399296 tables_memory 5344200648 
